{
    "created_at": "Tue Oct 22 15:22:11 +0000 2019",
    "id": 1186664050333306880,
    "id_str": "1186664050333306880",
    "text": "RT @cfarre: Steam now lets you play local multiplayer games with friends over the internet  https://t.co/jqY6DTFF9O via @Verge",
    "truncated": false,
    "entities": {
        "hashtags": [],
        "symbols": [],
        "user_mentions": [
            {
                "screen_name": "cfarre",
                "name": "Carles Farré",
                "id": 18244676,
                "id_str": "18244676",
                "indices": [
                    3,
                    10
                ]
            },
            {
                "screen_name": "verge",
                "name": "The Verge",
                "id": 275686563,
                "id_str": "275686563",
                "indices": [
                    120,
                    126
                ]
            }
        ],
        "urls": [
            {
                "url": "https://t.co/jqY6DTFF9O",
                "expanded_url": "https://www.theverge.com/2019/10/21/20924545/steam-remote-play-together-beta-valve-online-co-op-local-multiplayer",
                "display_url": "theverge.com/2019/10/21/209…",
                "indices": [
                    92,
                    115
                ]
            }
        ]
    },
    "source": "<a href=\"https://twitter.com/ismadlg_and_dvyd\" rel=\"nofollow\">waslab05_by_@ismadlg</a>",
    "in_reply_to_status_id": null,
    "in_reply_to_status_id_str": null,
    "in_reply_to_user_id": null,
    "in_reply_to_user_id_str": null,
    "in_reply_to_screen_name": null,
    "user": {
        "id": 1182972107845787649,
        "id_str": "1182972107845787649",
        "name": "Ismael de la Gracia",
        "screen_name": "ismadlg",
        "location": "",
        "description": "Me gusta dibujar personajes con Blender y estudio para ser Ingenier Informático.",
        "url": null,
        "entities": {
            "description": {
                "urls": []
            }
        },
        "protected": false,
        "followers_count": 0,
        "friends_count": 30,
        "listed_count": 0,
        "created_at": "Sat Oct 12 10:51:51 +0000 2019",
        "favourites_count": 2,
        "utc_offset": null,
        "time_zone": null,
        "geo_enabled": false,
        "verified": false,
        "statuses_count": 2,
        "lang": null,
        "contributors_enabled": false,
        "is_translator": false,
        "is_translation_enabled": false,
        "profile_background_color": "F5F8FA",
        "profile_background_image_url": null,
        "profile_background_image_url_https": null,
        "profile_background_tile": false,
        "profile_image_url": "http://pbs.twimg.com/profile_images/1182972706989465600/gx8u9MVJ_normal.jpg",
        "profile_image_url_https": "https://pbs.twimg.com/profile_images/1182972706989465600/gx8u9MVJ_normal.jpg",
        "profile_link_color": "1DA1F2",
        "profile_sidebar_border_color": "C0DEED",
        "profile_sidebar_fill_color": "DDEEF6",
        "profile_text_color": "333333",
        "profile_use_background_image": true,
        "has_extended_profile": false,
        "default_profile": true,
        "default_profile_image": false,
        "following": false,
        "follow_request_sent": false,
        "notifications": false,
        "translator_type": "none"
    },
    "geo": null,
    "coordinates": null,
    "place": null,
    "contributors": null,
    "retweeted_status": {
        "created_at": "Tue Oct 22 09:22:59 +0000 2019",
        "id": 1186573655905624064,
        "id_str": "1186573655905624064",
        "text": "Steam now lets you play local multiplayer games with friends over the internet  https://t.co/jqY6DTFF9O via @Verge",
        "truncated": false,
        "entities": {
            "hashtags": [],
            "symbols": [],
            "user_mentions": [
                {
                    "screen_name": "verge",
                    "name": "The Verge",
                    "id": 275686563,
                    "id_str": "275686563",
                    "indices": [
                        108,
                        114
                    ]
                }
            ],
            "urls": [
                {
                    "url": "https://t.co/jqY6DTFF9O",
                    "expanded_url": "https://www.theverge.com/2019/10/21/20924545/steam-remote-play-together-beta-valve-online-co-op-local-multiplayer",
                    "display_url": "theverge.com/2019/10/21/209…",
                    "indices": [
                        80,
                        103
                    ]
                }
            ]
        },
        "source": "<a href=\"http://twitter.com\" rel=\"nofollow\">Twitter Web Client</a>",
        "in_reply_to_status_id": null,
        "in_reply_to_status_id_str": null,
        "in_reply_to_user_id": null,
        "in_reply_to_user_id_str": null,
        "in_reply_to_screen_name": null,
        "user": {
            "id": 18244676,
            "id_str": "18244676",
            "name": "Carles Farré",
            "screen_name": "cfarre",
            "location": "41.38846, 2.11383",
            "description": "Tenured Assistant Professor @la_UPC. Member of @gessi_upc.  Like it or not, we live in interesting times.",
            "url": "https://t.co/vTK5ecmPoS",
            "entities": {
                "url": {
                    "urls": [
                        {
                            "url": "https://t.co/vTK5ecmPoS",
                            "expanded_url": "http://www.essi.upc.edu/~farre/",
                            "display_url": "essi.upc.edu/~farre/",
                            "indices": [
                                0,
                                23
                            ]
                        }
                    ]
                },
                "description": {
                    "urls": []
                }
            },
            "protected": false,
            "followers_count": 281,
            "friends_count": 314,
            "listed_count": 31,
            "created_at": "Fri Dec 19 16:18:57 +0000 2008",
            "favourites_count": 287,
            "utc_offset": null,
            "time_zone": null,
            "geo_enabled": true,
            "verified": false,
            "statuses_count": 209,
            "lang": null,
            "contributors_enabled": false,
            "is_translator": false,
            "is_translation_enabled": false,
            "profile_background_color": "C0DEED",
            "profile_background_image_url": "http://abs.twimg.com/images/themes/theme1/bg.png",
            "profile_background_image_url_https": "https://abs.twimg.com/images/themes/theme1/bg.png",
            "profile_background_tile": false,
            "profile_image_url": "http://pbs.twimg.com/profile_images/942466110955442176/tdx4XCfM_normal.jpg",
            "profile_image_url_https": "https://pbs.twimg.com/profile_images/942466110955442176/tdx4XCfM_normal.jpg",
            "profile_banner_url": "https://pbs.twimg.com/profile_banners/18244676/1571410378",
            "profile_link_color": "1B95E0",
            "profile_sidebar_border_color": "000000",
            "profile_sidebar_fill_color": "000000",
            "profile_text_color": "000000",
            "profile_use_background_image": true,
            "has_extended_profile": false,
            "default_profile": false,
            "default_profile_image": false,
            "following": false,
            "follow_request_sent": false,
            "notifications": false,
            "translator_type": "regular"
        },
        "geo": null,
        "coordinates": null,
        "place": null,
        "contributors": null,
        "is_quote_status": false,
        "retweet_count": 1,
        "favorite_count": 0,
        "favorited": false,
        "retweeted": true,
        "possibly_sensitive": false,
        "lang": "en"
    },
    "is_quote_status": false,
    "retweet_count": 1,
    "favorite_count": 0,
    "favorited": false,
    "retweeted": true,
    "possibly_sensitive": false,
    "lang": "en"
}
